<svg width="409" height="380" viewBox="0 0 409 380" fill="none" xmlns="http://www.w3.org/2000/svg">
<path fill-rule="evenodd" clip-rule="evenodd" d="M205.118 47.97C205.118 46.9145 205.974 46.0587 207.029 46.0587C208.085 46.0587 208.941 46.9145 208.941 47.97V87.1504L236.613 59.4781V0.310791L207.029 29.8944L177.445 0.310791V59.4781L205.118 87.1504V47.97Z" fill="#00AEEF"/>
<path fill-rule="evenodd" clip-rule="evenodd" d="M174.18 121.475L201.853 93.8018H162.672C161.616 93.8018 160.761 92.9465 160.761 91.891C160.761 90.8355 161.616 89.9797 162.672 89.9797H201.853L174.18 62.3074H115.013L144.596 91.891L115.013 121.475H174.18Z" fill="#00AEEF"/>
<path fill-rule="evenodd" clip-rule="evenodd" d="M307.449 22.2644C309.806 22.369 311.633 24.3648 311.528 26.722C311.423 29.0797 309.428 30.906 307.07 30.8014C304.713 30.6968 302.886 28.7009 302.991 26.3438C303.096 23.986 305.091 22.1598 307.449 22.2644ZM78.056 272.493L128.695 200.58C130.57 200.91 132.734 201.303 134.099 201.423C311.532 216.983 313.395 82.5062 326.218 44.7833L326.197 44.7749C327.943 41.4573 329.117 37.7731 329.545 33.8902C329.734 32.1881 329.714 30.5187 329.545 28.888L337.301 25.5207C336.233 22.4451 333.313 20.6156 330.748 19.0213C331.206 15.2055 330.933 10.6042 328.134 7.546L320.711 12.533C316.152 8.63373 310.248 6.145 303.9 5.86343C301.38 5.75143 298.935 6.0161 296.594 6.56287C296.575 6.56287 296.576 6.54332 296.553 6.54808C280.271 9.8625 281.166 20.3436 257.067 44.861C254.563 47.4089 248.308 53.6922 239.707 62.3085H298.529L268.945 91.8921L298.529 121.476H239.361L211.688 93.8034H250.869C251.925 93.8034 252.78 92.9476 252.78 91.8921C252.78 90.8371 251.925 89.9813 250.869 89.9813H212.053C209.779 92.2556 207.465 94.5689 205.118 96.915V135.806C205.118 136.861 205.973 137.717 207.029 137.717C208.084 137.717 208.94 136.861 208.94 135.806V96.6255L236.613 124.298V183.466L207.029 153.881L177.445 183.466V124.569C155.732 146.261 50.792 249.671 50.792 249.671L73.294 249.918L78.056 272.493Z" fill="#00AEEF"/>
<path fill-rule="evenodd" clip-rule="evenodd" d="M38.2446 335.256L38.2388 335.276C35.2931 345.722 29.8693 351.017 22.1147 351.017C18.8668 351.017 16.5075 350.066 15.0965 348.188C13.1075 345.536 13.0346 341.185 14.8693 334.887C18.0998 324.866 23.261 320.005 30.6522 320.005C33.8013 320.005 36.1157 320.926 37.5346 322.745C39.4956 325.261 39.7286 329.353 38.2446 335.256ZM49.4616 315.19C47.1731 312.055 43.1243 310.364 37.4337 310.165C26.6912 309.89 19.8647 317.099 19.8647 317.099L24.1174 302.081C24.6483 300.197 24.5812 298.8 23.9203 297.926C23.2753 297.073 21.9985 296.641 20.1278 296.641H14.1081L2.23237 338.776C0.227546 345.889 0.574625 351.29 3.26779 354.826C6.03228 358.452 11.389 360.291 19.1965 360.291H19.4907C35.4014 360.008 45.3912 351.887 50.0221 335.461C52.654 326.123 52.4664 319.304 49.4616 315.19Z" fill="#00AEEF"/>
<path fill-rule="evenodd" clip-rule="evenodd" d="M94.7048 310.87C91.6387 310.87 89.4151 312.206 87.9095 314.948L70.4985 347.489L69.9856 310.92L58.2076 310.752L60.4417 359.05C60.5405 362.473 59.6978 365.111 57.936 366.924C56.0554 368.858 53.1456 369.837 49.2802 369.837H46.1961L43.6191 378.986C44.3117 379.059 45.8332 379.11 48.128 379.11C58.6799 379.11 62.4227 376.295 67.677 368.363L102.52 310.87H94.7048Z" fill="#00AEEF"/>
<path fill-rule="evenodd" clip-rule="evenodd" d="M148.444 316.646C146.615 323.141 142.156 326.433 135.189 326.433C135.084 326.433 134.977 326.43 134.871 326.429H120.742L126.392 306.387H140.817C144.199 306.387 146.575 307.258 147.877 308.979C149.195 310.721 149.387 313.302 148.444 316.646ZM160.627 316.455C162.466 309.932 162.123 304.942 159.609 301.621C157.107 298.317 152.435 296.641 145.723 296.641H123.127C119.706 296.641 115.99 299.567 115.014 303.028L99.085 359.535H111.215L117.666 336.65H135.027C147.678 336.65 157.011 329.288 160.627 316.455Z" fill="#00AEEF"/>
<path fill-rule="evenodd" clip-rule="evenodd" d="M193.777 310.92H192.852C175.934 310.92 164.915 318.898 160.099 334.631L153.076 359.535H164.814L171.998 334.043C174.147 326.421 179.218 321.962 186.777 321.962H190.644L193.777 310.92Z" fill="#00AEEF"/>
<path fill-rule="evenodd" clip-rule="evenodd" d="M224.573 335.276L224.571 335.282C221.56 345.599 216.515 350.827 209.577 350.827C206.715 350.827 204.596 349.954 203.278 348.229C201.32 345.668 201.18 341.432 202.853 335.278C205.746 325.014 210.848 319.815 218.019 319.815C220.889 319.815 223.003 320.681 224.297 322.392C226.213 324.923 226.303 329.138 224.573 335.276ZM235.832 315.533C233.134 311.972 228.192 310.165 221.138 310.165C205.698 310.165 195.845 318.503 191.011 335.655C188.489 344.601 188.785 351.216 191.889 355.317C194.578 358.868 199.495 360.669 206.503 360.669C221.791 360.669 231.951 352.124 236.701 335.272C239.235 326.285 238.943 319.643 235.832 315.533Z" fill="#00AEEF"/>
<path fill-rule="evenodd" clip-rule="evenodd" d="M268.679 310.165C255.84 310.372 246.912 316.042 244.181 325.726C243.354 328.8 243.601 331.421 244.919 333.506C246.768 336.432 250.793 338.481 256.882 339.592C263.632 340.797 267.519 342.35 268.762 344.337C269.214 345.059 269.328 345.828 269.103 346.627C268.109 350.153 264.764 351.868 258.875 351.868C254.556 351.868 251.762 350.998 250.332 349.203C249.385 348.016 249.053 346.434 249.341 344.492H237.432C236.068 349.733 236.79 353.675 239.582 356.22C242.2 359.062 247.066 360.48 254.092 360.48C264.648 360.48 278.03 357.649 281.83 344.161C282.751 340.892 282.412 338.103 280.821 335.874C278.809 333.451 273.694 331.369 265.656 329.726C260.947 328.822 258.121 327.522 257.028 325.752C256.519 324.927 256.399 324.027 256.667 323.073C257.487 320.158 260.651 318.681 266.071 318.681C271.915 318.681 273.412 320.869 273.64 322.704C273.705 323.299 273.904 325.083 277.85 325.208H285.472C286.415 320.489 285.549 316.891 282.826 314.219C279.882 311.536 275.118 310.166 268.679 310.165Z" fill="#00AEEF"/>
<path fill-rule="evenodd" clip-rule="evenodd" d="M330.182 310.92C327.209 310.92 324.851 312.303 323.172 315.03L304.27 347.872L303.66 310.92H290.744L294.722 359.535H307.479L338.958 310.92H330.182Z" fill="#00AEEF"/>
<path fill-rule="evenodd" clip-rule="evenodd" d="M345.335 329.511C348.315 322.575 352.808 319.059 358.691 319.059C361.41 319.059 363.451 319.837 364.757 321.374C366.307 323.199 366.777 326.069 366.15 329.903L366.053 330.495H344.911L345.335 329.511ZM342.686 338.068H376.199C379.561 327.719 379.606 320.176 376.335 315.644C373.713 312.01 368.819 310.165 361.791 310.165C346.415 310.258 336.248 318.706 331.575 335.276C329.089 344.096 329.384 350.688 332.448 354.867C335.117 358.505 340.006 360.457 346.983 360.67C358.528 360.67 367.05 355.745 372.98 345.627H364.61C362.971 345.627 361.511 346.164 360.145 347.268L360.121 347.288C356.76 349.762 353.447 351.017 350.276 351.017C347.232 351.017 344.991 350.153 343.617 348.448C341.948 346.377 341.595 343.072 342.566 338.625L342.686 338.068Z" fill="#00AEEF"/>
<path fill-rule="evenodd" clip-rule="evenodd" d="M399.964 310.92L402.456 302.081C402.866 300.619 402.647 299.178 401.852 298.129C401.126 297.17 399.993 296.641 398.662 296.641H392.446L377.184 350.786C376.338 353.62 376.352 355.709 377.224 357.012C377.935 358.071 379.229 358.681 381.182 358.874C385.562 359.31 389.948 359.355 394.232 359.01L396.745 350.304H393.67C392.103 350.304 391 349.898 390.392 349.097C389.846 348.373 389.739 347.396 390.079 346.193L397.831 318.491L400.896 318.432C404.271 318.432 407.509 315.97 408.429 312.706L408.95 310.861L399.964 310.92Z" fill="#00AEEF"/>
</svg>
